Homework 5 Poker

Total Score: 79

Compiles                            20 pts yay

Comments                            9 pts -1
need a program description

Checks for Integer                  0 pts -10

Checks for duplicates               0 pts -10

Program works                       50 pts

Use of arrays 	                    -0 pts

Uses integer division 	            -0 pts

Incorrect number of decimal places  -0 pts